%YAML 1.1
%TAG !u! tag:unity3d.com,2011:
--- !u!1045 &1
EditorBuildSettings:
  m_ObjectHideFlags: 0
  serializedVersion: 2
  m_Scenes:
  - enabled: 1
    path: Assets/Scenes/Menu.unity
    guid: ba69f05bf6519f04c8af37b3220a8f82
  - enabled: 1
    path: Assets/Scenes/Gameplay.unity
    guid: cba119d91b2ff2f4a8c56a0ce74007c7
